R{"time"}=? [ F "complete" ]:
Result
15622.297275863528

P=? [ F[t,t] "complete" ]:
t	Result
0	0.0
1000	1.5987130851945336E-11
2000	4.268026339154705E-7
3000	5.1931913159479064E-5
4000	8.371853837482539E-4
5000	0.004986947539983781
6000	0.016938331620964853
7000	0.04072023086010692
8000	0.07807910201219169
9000	0.1282066833378755
10000	0.1885234646420556
11000	0.25567404249454867
12000	0.32629048928148585
13000	0.3974324391585423
14000	0.46676942451893555
15000	0.5326019523154183
16000	0.5937991245606121
17000	0.6497028497339977
18000	0.7000264787597199
19000	0.7447613959278532
20000	0.7840969765797897
21000	0.8183551230970411
22000	0.8479385990181733
23000	0.873291545136687
24000	0.8948703021969795
25000	0.9131226846724949
26000	0.9284740006675127
27000	0.9413183196585574
28000	0.9520137135509146
29000	0.9608804159008597
30000	0.9682010471234963
31000	0.9742222337382507
32000	0.9791571045917888
33000	0.983188276427525
34000	0.9864710466359043
35000	0.9891365949518833
36000	0.9912950611412469
37000	0.9930384153030951
38000	0.9944430741460036
39000	0.9955722430348177
40000	0.99647798198596
41000	0.9972030059946271
42000	0.9977822376550949
43000	0.9982441342279256
44000	0.9986118130936564
45000	0.9989039996644505
46000	0.9991358208735532
47000	0.9993194657439867
48000	0.9994564330326505
49000	0.9994708455420946
50000	0.9994708455762433
51000	0.9994708455762433
52000	0.9994708455762433
53000	0.9994708455762433
54000	0.9994708455762433
55000	0.9994708455762433
56000	0.9994708455762433
57000	0.9994708455762433
58000	0.9994708455762433
59000	0.9994708455762433
60000	0.9994708455762433
61000	0.9994708455762433
62000	0.9994708455762433
63000	0.9994708455762433
64000	0.9994708455762433
65000	0.9994708455762433
66000	0.9994708455762433
67000	0.9994708455762433
68000	0.9994708455762433
69000	0.9994708455762433
70000	0.9994708455762433
