R{"time"}=? [ F "complete" ]:
Result
16055.686095287692

P=? [ F[t,t] "complete" ]:
t	Result
0	0.0
1000	1.2903679501302129E-17
2000	2.8873205749910343E-9
3000	4.817443982617452E-6
4000	2.2137152667748745E-4
5000	0.0021841327005655596
6000	0.009769109077700884
7000	0.027673974031637974
8000	0.058913881254547946
9000	0.10376756036477973
10000	0.1602508404377622
11000	0.22515714856767136
12000	0.2949838788800331
13000	0.36652286019338615
14000	0.43714274738661846
15000	0.5048640721429245
16000	0.5683198301074968
17000	0.6266651274576682
18000	0.679472718914644
19000	0.7266331043977379
20000	0.7682672063732447
21000	0.8046540232715038
22000	0.83617293555164
23000	0.8632591633533205
24000	0.8863704663812046
25000	0.9059631371586195
26000	0.9224754699358354
27000	0.9363170924782515
28000	0.9478627780560707
29000	0.9574495845125105
30000	0.9653763821873925
31000	0.9719050251536152
32000	0.977262587258726
33000	0.9816442251913672
34000	0.9852163463704253
35000	0.9881198521546055
36000	0.9904732995368254
37000	0.992375880153059
38000	0.9939101570530938
39000	0.9951445299656925
40000	0.9961354211338672
41000	0.9969291882344975
42000	0.9975637801178916
43000	0.9980701564740007
44000	0.9984734951353414
45000	0.9987942114022516
46000	0.9990488131642467
47000	0.9992506141681573
48000	0.9994101257641204
49000	0.9994709853484733
50000	0.999471036685624
51000	0.999471036685624
52000	0.999471036685624
53000	0.999471036685624
54000	0.999471036685624
55000	0.999471036685624
56000	0.999471036685624
57000	0.999471036685624
58000	0.999471036685624
59000	0.999471036685624
60000	0.999471036685624
61000	0.999471036685624
62000	0.999471036685624
63000	0.999471036685624
64000	0.999471036685624
65000	0.999471036685624
66000	0.999471036685624
67000	0.999471036685624
68000	0.999471036685624
69000	0.999471036685624
70000	0.999471036685624
