t,N=1,N=5,N=10,N=15,N=20
0,0,0,0,0,0
1000,0.003599493,7.46E-08,2.70E-10,1.59E-11,3.01E-12
2000,0.023115288,9.18E-05,1.19E-05,5.06E-06,3.21E-06
3000,0.062856934,0.002306418,8.60E-04,5.88E-04,4.82E-04
4000,0.120512901,0.014161262,0.008114809,0.006594932,0.005923494
5000,0.191153169,0.044304384,0.031311355,0.027572201,0.025821912
6000,0.269378914,0.095519404,0.075770728,0.069656199,0.066703294
7000,0.350368648,0.164378458,0.139759239,0.131795195,0.127876566
8000,0.430291253,0.244529447,0.217354955,0.208311809,0.203808184
9000,0.506375509,0.329507008,0.301787206,0.292381959,0.287659133
10000,0.576809919,0.414088718,0.387285958,0.378064395,0.373406266
11000,0.640573534,0.494620647,0.46966587,0.460990404,0.456588692
12000,0.697253155,0.56885454,0.546255628,0.538335825,0.53430377
13000,0.746874897,0.635631801,0.615593049,0.608525438,0.604917463
14000,0.789762013,0.694568999,0.677091998,0.670895685,0.667725499
15000,0.826421929,0.745798516,0.730758431,0.72540288,0.7226578
16000,0.857460781,0.789772517,0.776972471,0.772397725,0.770049199
17000,0.883521657,0.827122108,0.816330475,0.81246127,0.810472279
18000,0.905242132,0.858559844,0.849534973,0.846290248,0.844620326
19000,0.923226823,0.88481466,0.87732061,0.874619688,0.873228208
20000,0.938031196,0.906590368,0.900406346,0.898172736,0.89702096
21000,0.950153507,0.924540953,0.919466396,0.917629958,0.916682214
22000,0.960032387,0.939257577,0.935114305,0.933612271,0.932836536
23000,0.968048163,0.951263547,0.947895986,0.946673235,0.946041317
24000,0.974526492,0.961014501,0.958288709,0.957297557,0.956785021
25000,0.979743285,0.968901854,0.966703842,0.96590355,0.965489481
26000,0.983930194,0.975258098,0.973491806,0.972847925,0.972514614
27000,0.987280192,0.980362994,0.978948147,0.978431808,0.978164396
28000,0.989952928,0.984450012,0.98332002,0.982907212,0.982693327
29000,0.992079678,0.987712601,0.986812576,0.986483467,0.98631288
30000,0.993767805,0.990310046,0.989595006,0.989333308,0.989197612
31000,0.99510469,0.992372765,0.991806033,0.991598444,0.991490767
32000,0.996161135,0.99400701,0.993558819,0.993394524,0.993309276
33000,0.996994286,0.995298958,0.994945246,0.99481549,0.994748144
34000,0.997650092,0.996318211,0.996039605,0.995937331,0.995884234
35000,0.998165384,0.997120784,0.996901736,0.996821275,0.99677949
36000,0.998569587,0.997751597,0.997579672,0.997516482,0.997483659
37000,0.998886146,0.998246565,0.998111844,0.9980623,0.998036559
38000,0.999133693,0.998634317,0.998528912,0.998490128,0.998469973
39000,0.999326998,0.998937616,0.998855267,0.998824951,0.998809194
40000,0.999474786,0.999174514,0.999110266,0.999086603,0.999074301
41000,0.999499035,0.999359296,0.999309236,0.999290791,0.999281199
42000,0.999499035,0.999491481,0.999463184,0.999449589,0.999442287
43000,0.999499035,0.999500409,0.999500393,0.999500395,0.999500381
44000,0.999499035,0.999500409,0.999500394,0.999500403,0.999500401
45000,0.999499035,0.999500409,0.999500394,0.999500403,0.999500401
46000,0.999499035,0.999500409,0.999500394,0.999500403,0.999500401
47000,0.999499035,0.999500409,0.999500394,0.999500403,0.999500401
48000,0.999499035,0.999500409,0.999500394,0.999500403,0.999500401
49000,0.999499035,0.999500409,0.999500394,0.999500403,0.999500401
50000,0.999499035,0.999500409,0.999500394,0.999500403,0.999500401
51000,0.999499035,0.999500409,0.999500394,0.999500403,0.999500401
52000,0.999499035,0.999500409,0.999500394,0.999500403,0.999500401
53000,0.999499035,0.999500409,0.999500394,0.999500403,0.999500401
54000,0.999499035,0.999500409,0.999500394,0.999500403,0.999500401
55000,0.999499035,0.999500409,0.999500394,0.999500403,0.999500401
56000,0.999499035,0.999500409,0.999500394,0.999500403,0.999500401
57000,0.999499035,0.999500409,0.999500394,0.999500403,0.999500401
58000,0.999499035,0.999500409,0.999500394,0.999500403,0.999500401
59000,0.999499035,0.999500409,0.999500394,0.999500403,0.999500401
60000,0.999499035,0.999500409,0.999500394,0.999500403,0.999500401
61000,0.999499035,0.999500409,0.999500394,0.999500403,0.999500401
62000,0.999499035,0.999500409,0.999500394,0.999500403,0.999500401
63000,0.999499035,0.999500409,0.999500394,0.999500403,0.999500401
64000,0.999499035,0.999500409,0.999500394,0.999500403,0.999500401
65000,0.999499035,0.999500409,0.999500394,0.999500403,0.999500401
66000,0.999499035,0.999500409,0.999500394,0.999500403,0.999500401
67000,0.999499035,0.999500409,0.999500394,0.999500403,0.999500401
68000,0.999499035,0.999500409,0.999500394,0.999500403,0.999500401
69000,0.999499035,0.999500409,0.999500394,0.999500403,0.999500401
70000,0.999499035,0.999500409,0.999500394,0.999500403,0.999500401
