t, Result
0, 0.0
1000, 1.2586751686220305E-17
2000, 2.886690320249286E-9
3000, 4.816358713562921E-6
4000, 2.2131124021536824E-4
5000, 0.0021834419764198997
6000, 0.009765625847536628
7000, 0.027663072049787532
8000, 0.05888864405288541
9000, 0.10371981497241348
10000, 0.16017241527544265
11000, 0.2250408849788681
12000, 0.2948242335897315
13000, 0.36631613280421105
14000, 0.4368870398012792
15000, 0.5045590883036065
16000, 0.5679665994440533
17000, 0.6262657075529945
18000, 0.6790299106942447
19000, 0.7261501978078391
20000, 0.7677477646507428
21000, 0.8041017078220348
22000, 0.8355913698160846
23000, 0.8626518319832588
24000, 0.8857406450133267
25000, 0.9053138477268845
26000, 0.9218094565555532
27000, 0.9356368133108236
28000, 0.9471704090961468
29000, 0.9567470318416331
30000, 0.9646652998484089
31000, 0.9711868363760863
32000, 0.9765385072837938
33000, 0.9809152843920983
34000, 0.9844834127379255
35000, 0.9873836525235242
36000, 0.9897344391627326
37000, 0.9916348604368032
38000, 0.9931673913421225
39000, 0.9944003574582666
40000, 0.9953901189769653
41000, 0.9961829819467538
42000, 0.9968168524913011
43000, 0.9973226551171236
44000, 0.9977255388201809
45000, 0.9980458953701873
46000, 0.9983002135355288
47000, 0.9985017915864218
48000, 0.9986613285264593
49000, 0.9987874123993341
50000, 0.9988869218674175
51000, 0.998965355173672
52000, 0.999027098646859
53000, 0.9990756451304553
54000, 0.9991137711251179
55000, 0.9991436800344179
56000, 0.9991671175745438
57000, 0.9991854575590003
58000, 0.9991996462979733
59000, 0.9992096588758235
60000, 0.9992147750335264
61000, 0.9992162078643758
62000, 0.9992163905281065
63000, 0.9992164001954547
64000, 0.9992164003996762
65000, 0.9992164004013804
66000, 0.9992164004013825
67000, 0.9992164004013845
68000, 0.9992164004013845
69000, 0.9992164004013845
70000, 0.9992164004013845
