R{"time"}=? [ F "complete" ]:
Result
15622.559518740434

P=? [ F[t,t] "complete" ]:
t	Result
0	0.0
1000	1.4389595834279779E-11
2000	4.2657408229572697E-7
3000	5.192824847165636E-5
4000	8.37148263020277E-4
5000	0.004986712100507886
6000	0.016937459892848714
7000	0.04071795156926204
8000	0.07807443626405741
9000	0.12819856400293786
10000	0.18851092852202292
11000	0.2556563235696611
12000	0.3262670661474021
13000	0.397403020114529
14000	0.46673398244003395
15000	0.532560626316467
16000	0.5937521808340658
17000	0.6496506960436393
18000	0.6999695508437561
19000	0.7447001816855315
20000	0.7840319940917154
21000	0.8182868392988896
22000	0.8478674747865007
23000	0.8732180067791736
24000	0.8947947549757306
25000	0.9130454534967807
26000	0.9283953859270976
27000	0.9412385804985347
28000	0.9519330705960949
29000	0.9607990546790314
30000	0.9681191218360354
31000	0.974139871115216
32000	0.9790744076441119
33000	0.9831053279709956
34000	0.9863879125106945
35000	0.989053326898848
36000	0.9912116831728545
37000	0.9929549751260071
38000	0.9943595949809093
39000	0.9954887420923503
40000	0.9963944717551098
41000	0.997119495299014
42000	0.9976987175617589
43000	0.9981606245913252
44000	0.998528316187809
45000	0.99882051661118
46000	0.9990523374966036
47000	0.9992359973752043
48000	0.9993812785242494
49000	0.9994960395170698
50000	0.9995865566553949
51000	0.9996578818241394
52000	0.9997140056936495
53000	0.9997581616355995
54000	0.9997927861341859
55000	0.9998199375254779
56000	0.9998412062075468
57000	0.9998578497023026
58000	0.9998708607982019
59000	0.9998810218891345
60000	0.9998889480065948
61000	0.9998951206100917
62000	0.9998999140635831
63000	0.9999036168589209
64000	0.9999064497284135
65000	0.9999085822902181
66000	0.9999101485599643
67000	0.9999112601001067
68000	0.9999120148968228
69000	0.999912500954531
70000	0.9999127955410283
