t, Result
0, 0.0
1000, 0.003599452471272038
2000, 0.02311523763791882
3000, 0.06285676434095482
4000, 0.12051260750793873
5000, 0.19115262705813707
6000, 0.26937805939324666
7000, 0.3503674392295161
8000, 0.43028962674845533
9000, 0.5063735241074842
10000, 0.5768075941079921
11000, 0.640570899660957
12000, 0.6972502506889735
13000, 0.7468717266138991
14000, 0.7897586706772517
15000, 0.826418451492383
16000, 0.8574571573959283
17000, 0.8835179793046886
18000, 0.9052384201083876
19000, 0.9232230499739311
20000, 0.9380274380292528
21000, 0.9501497690755598
22000, 0.9600286346456388
23000, 0.9680444534049484
24000, 0.9745228215488706
25000, 0.9797396188172094
26000, 0.9839265743081655
27000, 0.9872765712606272
28000, 0.9899493565199575
29000, 0.9920761452481083
30000, 0.9937642743194227
31000, 0.9951011969937971
32000, 0.9961576363758022
33000, 0.9969908238066992
34000, 0.9976466165664364
35000, 0.9981619445075368
36000, 0.9985661725208126
37000, 0.9988827219876247
38000, 0.9991302934641847
39000, 0.9993235838317158
40000, 0.9994743515838913
41000, 0.9995917368770089
42000, 0.9996830856687473
43000, 0.9997540218391424
44000, 0.9998091162547491
45000, 0.9998517888666841
46000, 0.9998848812464517
47000, 0.999910443351174
48000, 0.999930247769945
49000, 0.9999455400820405
50000, 0.9999573135444381
51000, 0.9999664195194791
52000, 0.999973407035634
53000, 0.9999788150609401
54000, 0.9999829468083739
55000, 0.9999861520972946
56000, 0.9999885856049834
57000, 0.9999904830186741
58000, 0.9999919098392712
59000, 0.9999930329796817
60000, 0.999993864847657
61000, 0.9999945308253205
62000, 0.999995012101793
63000, 0.9999954087792804
64000, 0.9999956840685438
65000, 0.9999959224131982
66000, 0.9999960770575891
67000, 0.9999962224351294
68000, 0.9999963066771538
69000, 0.9999963974906824
70000, 0.9999964408409844
