t, Result
0, 0.0
1000, 0.003599493183089758
2000, 0.02311528775263634
3000, 0.06285693429793127
4000, 0.12051290121639498
5000, 0.19115316946198185
6000, 0.2693789140606465
7000, 0.35036864811800744
8000, 0.430291253342584
9000, 0.5063755089266523
10000, 0.5768099188732914
11000, 0.6405735336750707
12000, 0.6972531552841686
13000, 0.7468748973704028
14000, 0.7897620129771037
15000, 0.8264219290901756
16000, 0.8574607811112004
17000, 0.8835216568660595
18000, 0.9052421318242329
19000, 0.9232268225785778
20000, 0.9380311955836034
21000, 0.9501535068278208
22000, 0.9600323870571175
23000, 0.9680481629722998
24000, 0.9745264922184729
25000, 0.9797432849436235
26000, 0.9839301941247078
27000, 0.9872801924191036
28000, 0.989952927955988
29000, 0.9920796776168896
30000, 0.9937678048939206
31000, 0.9951046895258036
32000, 0.9961611352160001
33000, 0.9969942856717257
34000, 0.9976500924530955
35000, 0.9981653840623768
36000, 0.9985695868211125
37000, 0.9988861461731673
38000, 0.9991336933831858
39000, 0.9993269980445004
40000, 0.9994747858649731
41000, 0.9994990349990127
42000, 0.9994990350699882
43000, 0.9994990350699882
44000, 0.9994990350699882
45000, 0.9994990350699882
46000, 0.9994990350699882
47000, 0.9994990350699882
48000, 0.9994990350699882
49000, 0.9994990350699882
50000, 0.9994990350699882
51000, 0.9994990350699882
52000, 0.9994990350699882
53000, 0.9994990350699882
54000, 0.9994990350699882
55000, 0.9994990350699882
56000, 0.9994990350699882
57000, 0.9994990350699882
58000, 0.9994990350699882
59000, 0.9994990350699882
60000, 0.9994990350699882
61000, 0.9994990350699882
62000, 0.9994990350699882
63000, 0.9994990350699882
64000, 0.9994990350699882
65000, 0.9994990350699882
66000, 0.9994990350699882
67000, 0.9994990350699882
68000, 0.9994990350699882
69000, 0.9994990350699882
70000, 0.9994990350699882
