R{"time"}=? [ F "complete" ]:
Result
12476.379296837376

P=? [ F[t,t] "complete" ]:
t	Result
0	0.0
1000	2.699709647975808E-10
2000	1.1855604815959393E-5
3000	8.594142576606558E-4
4000	0.008113737480735853
5000	0.03130652672466457
6000	0.07575751726420138
7000	0.13973231618523396
8000	0.2173094838321279
9000	0.30171953278655456
10000	0.38719385665125583
11000	0.4695484132065676
12000	0.5461129884248962
13000	0.6154262177251162
14000	0.6769025714839062
15000	0.7305482746046233
16000	0.7767436650341276
17000	0.8160851457413292
18000	0.8492751964870574
19000	0.8770483468802859
20000	0.9001233998112402
21000	0.9191743954414794
22000	0.9348146937082334
23000	0.9475900264781236
24000	0.9579774903725841
25000	0.9663882953650231
26000	0.9731727177190774
27000	0.9786261785599095
28000	0.9829957189839913
29000	0.9864863979133054
30000	0.989267322271586
31000	0.9914771480554394
32000	0.9932289792594986
33000	0.9946146501230508
34000	0.9957084130716746
35000	0.9965700763307276
36000	0.9972476462123581
37000	0.9977795330109477
38000	0.9981963788123439
39000	0.9985225621283167
40000	0.9987774293601724
41000	0.9989762975201446
42000	0.9991312669484751
43000	0.9992518773006434
44000	0.9993456350396897
45000	0.9994184361498695
46000	0.9994749038214001
47000	0.9995186574314129
48000	0.9995525262285389
49000	0.9995787186698945
50000	0.9995989563012694
51000	0.9996145792193377
52000	0.9996266266546793
53000	0.9996358823033535
54000	0.9996428543195539
55000	0.9996477455535631
56000	0.9996506595223297
57000	0.9996519920247269
58000	0.9996524252229094
59000	0.9996525208790313
60000	0.9996525349017411
61000	0.9996525362543299
62000	0.9996525363400925
63000	0.9996525363436786
64000	0.999652536343781
65000	0.9996525363437818
66000	0.9996525363437808
67000	0.9996525363437816
68000	0.9996525363437816
69000	0.9996525363437816
70000	0.9996525363437816
