t, Result
0, 0.0
1000, 1.013723993981326E-12
2000, 2.4145811337946908E-6
3000, 4.2625840734844696E-4
4000, 0.0055439404866246345
5000, 0.02478918442397796
6000, 0.06490272994663131
7000, 0.12540959196080884
8000, 0.20087099742353307
9000, 0.28444928801393515
10000, 0.37008170404152396
11000, 0.45325996898028237
12000, 0.5310405260770574
13000, 0.6017585897738709
14000, 0.6646885814612322
15000, 0.7197465304008799
16000, 0.7672587588373105
17000, 0.807793055015424
18000, 0.8420403998698021
19000, 0.8707349582946048
20000, 0.8946020576090884
21000, 0.9143261921296536
22000, 0.9305330831842986
23000, 0.9437813857327332
24000, 0.9545608205370114
25000, 0.9632944052205752
26000, 0.9703431282800923
27000, 0.9760119106586246
28000, 0.9805560700236463
29000, 0.9841877739539214
30000, 0.9870821634356838
31000, 0.9893829658590785
32000, 0.9912075115534176
33000, 0.9926511310806808
34000, 0.9937909507290306
35000, 0.9946891275515441
36000, 0.99539557787072
37000, 0.9959502581089074
38000, 0.9963850567938253
39000, 0.9967253535427565
40000, 0.9969912960862539
41000, 0.9971988408609403
42000, 0.9973605969787772
43000, 0.9974865078410534
44000, 0.9975843995273787
45000, 0.99766042046449
46000, 0.997719392806979
47000, 0.9977650923558429
48000, 0.9978003705528845
49000, 0.9978233790897837
50000, 0.9978284712991081
51000, 0.9978285894880269
52000, 0.9978285896264127
53000, 0.9978285896264194
54000, 0.9978285896264194
55000, 0.9978285896264194
56000, 0.9978285896264194
57000, 0.9978285896264194
58000, 0.9978285896264194
59000, 0.9978285896264194
60000, 0.9978285896264194
61000, 0.9978285896264194
62000, 0.9978285896264194
63000, 0.9978285896264194
64000, 0.9978285896264194
65000, 0.9978285896264194
66000, 0.9978285896264194
67000, 0.9978285896264194
68000, 0.9978285896264194
69000, 0.9978285896264194
70000, 0.9978285896264194
