R{"time"}=? [ F "complete" ]:
Result
12156.866277656956

P=? [ F[t,t] "complete" ]:
t	Result
0	0.0
1000	7.448122281011004E-8
2000	9.181230286800622E-5
3000	0.002306339045502282
4000	0.014160719055569388
5000	0.04430243122542765
6000	0.09551469797681789
7000	0.16436957332606242
8000	0.2445152224378754
9000	0.32948660716247397
10000	0.4140617120079059
11000	0.49458694804490055
12000	0.5688143313129964
13000	0.6355854362266203
14000	0.6945170033693749
15000	0.7457414577481639
16000	0.7897109702871081
17000	0.8270566806423408
18000	0.8584910746288138
19000	0.8847430609220073
20000	0.9065164229840409
21000	0.9244650501477666
22000	0.9391800702329536
23000	0.951184737495375
24000	0.9609346631536524
25000	0.96882118209548
26000	0.9751767671747166
27000	0.9802811471397523
28000	0.9843677644264183
29000	0.987630045905131
30000	0.9902272559315404
31000	0.9922897983942415
32000	0.9939239132315679
33000	0.9952157644833654
34000	0.9962349489711567
35000	0.9970374729436392
36000	0.9976682366502646
37000	0.9981631831956859
38000	0.998550922482281
39000	0.9988542145436261
40000	0.9990911102181153
41000	0.9992758925653119
42000	0.9994198240990775
43000	0.9995318221765404
44000	0.9996188599668956
45000	0.9996864247102907
46000	0.9997388028145088
47000	0.999779390076235
48000	0.9998108008284212
49000	0.9998350872647558
50000	0.9998538351643848
51000	0.9998683170065851
52000	0.9998794853537842
53000	0.9998881363710148
54000	0.9998947543717632
55000	0.9998998351442202
56000	0.9999037182423018
57000	0.9999066598469915
58000	0.9999088531720042
59000	0.9999104475057324
60000	0.9999115647357104
61000	0.9999123108376347
62000	0.9999127807006077
63000	0.9999130572971293
64000	0.9999132084737002
65000	0.9999132848178942
66000	0.999913320325591
67000	0.9999133355063101
68000	0.9999133414668936
69000	0.999913343615909
70000	0.9999133443276296
