R{"time"}=? [ F "complete" ]:
Result
12585.570457062317

P=? [ F[t,t] "complete" ]:
t	Result
0	0.0
1000	1.5932400121110217E-11
2000	5.06076532910659E-6
3000	5.874829628674483E-4
4000	0.006593090848575297
5000	0.02756315134510496
6000	0.06963022389497223
7000	0.1317406509371734
8000	0.2082178095559866
9000	0.29224005362064853
10000	0.3778691631239509
11000	0.4607393409108821
12000	0.5380288784887453
13000	0.60816443055199
14000	0.6704837638263479
15000	0.7249440346015181
16000	0.7718964008301117
17000	0.8119220699364817
18000	0.8457177155619781
19000	0.8740181519130036
20000	0.8975462184205236
21000	0.9169821142720208
22000	0.9329463681546045
23000	0.9459921509898115
24000	0.9566037968139935
25000	0.9651992687453117
26000	0.9721349609534877
27000	0.9777117155892153
28000	0.9821812947719496
29000	0.9857528117278931
30000	0.9885988150703862
31000	0.9908608540710226
32000	0.9926544447304494
33000	0.9940734175534979
34000	0.995193666677257
35000	0.9960763428798667
36000	0.9967705448834118
37000	0.997315567856404
38000	0.9977427677356109
39000	0.9980770967865419
40000	0.9983383610057261
41000	0.9985422444167243
42000	0.9987011396030141
43000	0.9988248183146559
44000	0.9989209708906295
45000	0.9989956386598268
46000	0.9990535594572592
47000	0.9990984429108781
48000	0.9991331891852628
49000	0.999160062358306
50000	0.9991808265601132
51000	0.9991968134862148
52000	0.9992085858014976
53000	0.999215415316469
54000	0.9992176623517277
55000	0.9992179856733213
56000	0.9992180034521851
57000	0.9992180038048407
58000	0.9992180038073181
59000	0.9992180038073241
60000	0.999218003807325
61000	0.999218003807325
62000	0.999218003807325
63000	0.999218003807325
64000	0.999218003807325
65000	0.999218003807325
66000	0.999218003807325
67000	0.999218003807325
68000	0.999218003807325
69000	0.999218003807325
70000	0.999218003807325
