t, Result
0, 0.0
1000, 4.750044036892598E-13
2000, 1.992971606095011E-6
3000, 3.9260392266858926E-4
4000, 0.005303309130351064
5000, 0.024123169936270325
6000, 0.06373494230719531
7000, 0.12381104174037479
8000, 0.1989783357550097
9000, 0.28240027267228607
10000, 0.36798638452235016
11000, 0.4511949570463114
12000, 0.5290533585844281
13000, 0.5998748212302437
14000, 0.6629184613282446
15000, 0.718090307685049
16000, 0.7657105688951212
17000, 0.806343635471818
18000, 0.8406789224371028
19000, 0.8694502213755755
20000, 0.8933832280409549
21000, 0.9131632348454626
22000, 0.9294169791219334
23000, 0.9427042097778935
24000, 0.9535157303806362
25000, 0.9622755767502975
26000, 0.969345662009535
27000, 0.9750317256423423
28000, 0.9795897959206106
29000, 0.9832326478052525
30000, 0.9861359348741708
31000, 0.9884438125364443
32000, 0.9902739653035254
33000, 0.9917220145425735
34000, 0.9928653236900863
35000, 0.9937662420333802
36000, 0.9944748408919107
37000, 0.9950312010647153
38000, 0.995467310455767
39000, 0.9958086277736925
40000, 0.9960753634722631
41000, 0.9962835235686865
42000, 0.9964457562494452
43000, 0.9965720356254641
44000, 0.9966702118501405
45000, 0.9967464521772651
46000, 0.9968055933005725
47000, 0.9968509835187458
48000, 0.9968732972558525
49000, 0.9968746672091076
50000, 0.9968746689058948
51000, 0.9968746689059139
52000, 0.9968746689059139
53000, 0.9968746689059139
54000, 0.9968746689059139
55000, 0.9968746689059139
56000, 0.9968746689059139
57000, 0.9968746689059139
58000, 0.9968746689059139
59000, 0.9968746689059139
60000, 0.9968746689059139
61000, 0.9968746689059139
62000, 0.9968746689059139
63000, 0.9968746689059139
64000, 0.9968746689059139
65000, 0.9968746689059139
66000, 0.9968746689059139
67000, 0.9968746689059139
68000, 0.9968746689059139
69000, 0.9968746689059139
70000, 0.9968746689059139
