t, Result
0, 0.0
1000, 2.6581119002176305E-4
2000, 0.0033580688532485604
3000, 0.01345872063943924
4000, 0.033768968185664376
5000, 0.06564245437846802
6000, 0.10870839470923695
7000, 0.16135715110950166
8000, 0.22127708896375003
9000, 0.28590782438387885
10000, 0.35276811121788
11000, 0.41966180252532753
12000, 0.4847838895340172
13000, 0.546753239861463
14000, 0.6045966303978603
15000, 0.6577040441656476
16000, 0.7057700835036985
17000, 0.7487317354224052
18000, 0.7867089815663636
19000, 0.819951925751066
20000, 0.8487961172236931
21000, 0.8736264233976162
22000, 0.8948489921700666
23000, 0.9128703990538545
24000, 0.9280828822510859
25000, 0.9408545401677226
26000, 0.951523435167362
27000, 0.9603946685725986
28000, 0.9677396342044358
29000, 0.9737968015682309
30000, 0.9787735136975297
31000, 0.9828484027660951
32000, 0.9861741266481487
33000, 0.9888802117011335
34000, 0.9910758525282123
35000, 0.9928525703661063
36000, 0.9942866702810724
37000, 0.9954414657502996
38000, 0.9963692594840627
39000, 0.9971130832800723
40000, 0.9977082087926709
41000, 0.9981834465785644
42000, 0.9985622536329946
43000, 0.9988636706309064
44000, 0.9991031098312582
45000, 0.9992930135365699
46000, 0.9994407872229806
47000, 0.9994692792077338
48000, 0.9994692797416902
49000, 0.9994692797416902
50000, 0.9994692797416902
51000, 0.9994692797416902
52000, 0.9994692797416902
53000, 0.9994692797416902
54000, 0.9994692797416902
55000, 0.9994692797416902
56000, 0.9994692797416902
57000, 0.9994692797416902
58000, 0.9994692797416902
59000, 0.9994692797416902
60000, 0.9994692797416902
61000, 0.9994692797416902
62000, 0.9994692797416902
63000, 0.9994692797416902
64000, 0.9994692797416902
65000, 0.9994692797416902
66000, 0.9994692797416902
67000, 0.9994692797416902
68000, 0.9994692797416902
69000, 0.9994692797416902
70000, 0.9994692797416902
