t, Result
0, 0.0
1000, 7.355855208644256E-19
2000, 1.3198869476973136E-9
3000, 3.438803254202709E-6
4000, 1.8468768401344872E-4
5000, 0.001955507717376398
6000, 0.009079592411739636
7000, 0.026291569348117383
8000, 0.05675355084358596
9000, 0.10089471727615588
10000, 0.15682670249928787
11000, 0.22137881933801853
12000, 0.29104205622986784
13000, 0.3625794140012312
14000, 0.43332279796179385
15000, 0.5012565317851587
16000, 0.5649819775153186
17000, 0.6236285447278278
18000, 0.6767491976557108
19000, 0.7242198992472886
20000, 0.7661514282098876
21000, 0.8028161653305139
22000, 0.8345896126729002
23000, 0.8619051752509445
24000, 0.8852203001945235
25000, 0.9049920172833382
26000, 0.9216600511229727
27000, 0.9356358786545512
28000, 0.9472963358372092
29000, 0.9569806077586751
30000, 0.9649896526097486
31000, 0.9715873041109649
32000, 0.9770024655284859
33000, 0.9814319505987523
34000, 0.985043643592459
35000, 0.9879797446234618
36000, 0.990359939979402
37000, 0.992284393751586
38000, 0.9938364993379214
39000, 0.9950853602165787
40000, 0.9960879911500651
41000, 0.9968912457364242
42000, 0.9975334856827394
43000, 0.9980460127189488
44000, 0.9984542867943045
45000, 0.9987789549564348
46000, 0.999036714753922
47000, 0.99924103461141
48000, 0.9994026509421604
49000, 0.999470908228266
50000, 0.999471015177414
51000, 0.9994710151774144
52000, 0.9994710151774144
53000, 0.9994710151774144
54000, 0.9994710151774144
55000, 0.9994710151774144
56000, 0.9994710151774144
57000, 0.9994710151774144
58000, 0.9994710151774144
59000, 0.9994710151774144
60000, 0.9994710151774144
61000, 0.9994710151774144
62000, 0.9994710151774144
63000, 0.9994710151774144
64000, 0.9994710151774144
65000, 0.9994710151774144
66000, 0.9994710151774144
67000, 0.9994710151774144
68000, 0.9994710151774144
69000, 0.9994710151774144
70000, 0.9994710151774144
