t, Result
0, 0.0
1000, 2.657728286311082E-4
2000, 0.003358044818044455
3000, 0.013458641822086915
4000, 0.033768872253159624
5000, 0.06564224143986346
6000, 0.10870800277246019
7000, 0.1613565177607567
8000, 0.22127611449438622
9000, 0.285906524119337
10000, 0.35276645858397326
11000, 0.41965978818032845
12000, 0.4847815203817447
13000, 0.546750498398577
14000, 0.6045935992250747
15000, 0.6577007564460826
16000, 0.705766532697188
17000, 0.7487280236189142
18000, 0.7867051420016231
19000, 0.8199479473228589
20000, 0.8487920922219305
21000, 0.8736223725772452
22000, 0.8948448959568982
23000, 0.9128663282223539
24000, 0.9280788442359663
25000, 0.9408505100104625
26000, 0.9515194620840782
27000, 0.9603907105452454
28000, 0.9677357463043952
29000, 0.9737929757398283
30000, 0.9787697140884462
31000, 0.9828446660891479
32000, 0.9861704082682679
33000, 0.9888765540534912
34000, 0.9910722033643885
35000, 0.992848978519409
36000, 0.9942831229959432
37000, 0.9954379261382327
38000, 0.9963657599452826
39000, 0.9971095835500539
40000, 0.99770474539036
41000, 0.9981799762971925
42000, 0.9985588167809738
43000, 0.9988602214550258
44000, 0.9990996919736301
45000, 0.9992895790828993
46000, 0.9994399968572599
47000, 0.9995588990861567
48000, 0.9996528372907005
49000, 0.9997269149909689
50000, 0.9997852320149307
51000, 0.9998311353206182
52000, 0.9998671742337532
53000, 0.9998954876378566
54000, 0.9999176558663957
55000, 0.9999350462635603
56000, 0.9999486227492748
57000, 0.9999592635092449
58000, 0.999967543329596
59000, 0.9999740321919319
60000, 0.9999790610389505
61000, 0.999983006628857
62000, 0.9999860482608347
63000, 0.9999884419671791
64000, 0.9999902735380795
65000, 0.999991723665103
66000, 0.999992821079614
67000, 0.9999936993547489
68000, 0.9999943529058305
69000, 0.9999948856261547
70000, 0.9999952717450691
